diameter,deposition
1e-08,0.9411666045624533
1.438449888287663e-08,0.9244146630738181
2.06913808111479e-08,0.8825621499776704
2.9763514416313175e-08,0.7992136241388593
4.281332398719394e-08,0.6789561818873582
6.158482110660263e-08,0.543769165116155
8.858667904100822e-08,0.41848856442571203
1.2742749857031335e-07,0.31768514112428325
1.8329807108324354e-07,0.2470477615587845
2.636650898730358e-07,0.2083555431409869
3.7926901907322496e-07,0.20468389342367943
5.455594781168517e-07,0.24462368491428052
7.84759970351461e-07,0.34114898967044255
1.1288378916846883e-06,0.4979105356661706
1.6237767391887209e-06,0.6843787690360309
2.335721469090121e-06,0.8388592794749379
3.3598182862837807e-06,0.9217574262889614
4.832930238571752e-06,0.9501465484727003
6.951927961775605e-06,0.9609054921576861
9.999999999999999e-06,0.9673996779508447
