diameter,deposition
1e-08,0.9459910061058872
1.438449888287663e-08,0.9294865106037332
2.06913808111479e-08,0.8885898086406708
2.9763514416313175e-08,0.8082109989464992
4.281332398719394e-08,0.6913401629905085
6.158482110660263e-08,0.5577734613828977
8.858667904100822e-08,0.43212936648446143
1.2742749857031335e-07,0.32960916873240775
1.8329807108324354e-07,0.25734111138207666
2.636650898730358e-07,0.21785824306687035
3.7926901907322496e-07,0.21483002619710292
5.455594781168517e-07,0.25735879109075427
7.84759970351461e-07,0.35832567687234895
1.1288378916846883e-06,0.5192609513923794
1.6237767391887209e-06,0.7052999057395709
2.335721469090121e-06,0.8537653607482144
3.3598182862837807e-06,0.9305322074416721
4.832930238571752e-06,0.956009803400641
6.951927961775605e-06,0.9653867981331324
9.999999999999999e-06,0.9708943453750251
