,0.0,0.13043478260869565,0.2608695652173913,0.3913043478260869,0.5217391304347826,0.6521739130434783,0.782608695652174,0.9130434782608696,1.0434782608695652,1.1739130434782608,1.3043478260869563,1.4347826086956519,1.5652173913043474,1.695652173913043,1.8260869565217386,1.9565217391304341,2.08695652173913,2.2173913043478257,2.3478260869565215,2.4782608695652173,2.608695652173913,2.739130434782609,2.8695652173913047,3.0000000000000004
0.0,1.0,0.0,0.0,0.0,0.0,0.0,0.0,0.0,0.0,0.0,0.0,0.0,0.0,0.0,0.0,0.0,0.0,0.0,0.0,0.0,0.0,0.0,0.0,0.0
0.1,1.0,0.8182947093278417,0.6319324128995334,0.45849414549790635,0.31137861481000195,0.19734040455577395,0.11642285614622683,0.06380817153350682,0.0324347873299895,0.01527046162544865,0.00665140039898271,0.0026778898839655563,0.0009957886130441684,0.000341830001098109,0.00010832380490188864,3.1749425269622655e-05,8.69096524225288e-06,2.3141909546442463e-06,6.84828875718857e-07,2.784109216502628e-07,1.4454373409300558e-07,4.984205315139434e-08,-5.5373131857550106e-08,-1.7560276077688286e-07
0.2,1.0,0.8863571353491888,0.7642319765717802,0.6398210752450764,0.5192965173481114,0.4080299851490914,0.31000250864139756,0.22750048361341724,0.16112118966161237,0.11003699277670675,0.07241836275315383,0.045901826331276596,0.028006786508812054,0.01644212904572795,0.00928428196886788,0.005040685320216398,0.002630610218626761,0.00131929533537134,0.0006357149603868351,0.0002943103702127692,0.00013104645253680935,5.6641731980056065e-05,2.544685725724971e-05,1.6808928657630062e-05
0.30000000000000004,1.0,0.9161448499719966,0.8245505402114678,0.7282652567620249,0.6306061413128984,0.5348656142297945,0.44402955257348975,0.3605456690766362,0.28617017074866025,0.22190594188122426,0.16802958361963138,0.12419107572085397,0.0895610932829839,0.06299815023368827,0.043210299193466195,0.02889252137997822,0.01882910326255638,0.01195823523800088,0.0074023550874933175,0.004471726378056373,0.0026504371297821905,0.0015739892810315848,0.0010067401873219417,0.0008264861311244598
0.4,1.0,0.9335481637254137,0.8603496068236723,0.7821467079111024,0.7009351572338783,0.6188310124769927,0.5379285995734349,0.4601644601526347,0.3872013715085736,0.32034331221939016,0.26048772204345416,0.20811632954459702,0.16332105481648418,0.1258577639315539,0.09521842216257959,0.07071161352078315,0.051542315400800454,0.03688387093741552,0.02593781354142255,0.01798010122635718,0.012395042306785897,0.0087005108104804,0.006569872841872382,0.005857386695552247
0.5,1.0,0.9451618602831946,0.8844418227594237,0.8189214290597067,0.7498881845998153,0.6787684241034831,0.6070501708924759,0.5362026534096378,0.46759941467529986,0.4024514077563677,0.3417552081441426,0.2862596922020465,0.23645249814716485,0.19256559319396616,0.1545975835086003,0.12234922483226662,0.09546803554552807,0.07349800041377208,0.05593101657198041,0.04225784259275722,0.03201769583431335,0.024847115153794008,0.020530078027765963,0.019052453620575283
0.6000000000000001,1.0,0.9535368139901212,0.9019075907539651,0.8458175916888728,0.7861357646934092,0.7238585226670704,0.6600655299149312,0.5958706549445956,0.5323716761624671,0.47060240501267425,0.41149061817427957,0.3558246109608648,0.3042303810561664,0.2571605343239075,0.2148950920286874,0.17755358418652567,0.14511722795449622,0.11745967072064434,0.09438474267674801,0.07566988944377928,0.06111437954592858,0.05059190995642604,0.04410774821959651,0.04186092173715594
0.7000000000000001,1.0,0.9598925219705233,0.9152106219988811,0.8664281033856563,0.8141492421480518,0.7590885433032777,0.7020445181572494,0.643869070394633,0.585434438462946,0.5275998458008502,0.4711800430429428,0.416917791263427,0.3654620554157406,0.3173532909218898,0.2730167626843638,0.2327643868788295,0.19680518004546466,0.16526407470514526,0.1382086370551212,0.11568310135027926,0.09774909735552673,0.08453245215520311,0.07627544046845758,0.07339377414926551
0.8,1.0,0.9648942557034242,0.9257076972398646,0.88276398204333,0.836491819992075,0.7874135953988253,0.7361295960845826,0.683298685882423,0.6296165280812538,0.5757926679692003,0.5225278980498054,0.47049335345377585,0.4203127202819109,0.37254879706411415,0.32769544660983185,0.2861757333935354,0.2483467818909295,0.2145116327155291,0.18493812887882943,0.15988463877822046,0.13963221118280023,0.12452254725128942,0.11500094517037329,0.11166310033212978
0.9,1.0,0.9689397446651511,0.9342154796217167,0.8960497991907964,0.8547509279160566,0.8107065392565717,0.7643743650300453,0.7162700532641093,0.6669529306916873,0.6170104926063493,0.5670425658450088,0.5176461625323121,0.469402059251365,0.4228640989668051,0.37855212540133965,0.3369493283900622,0.2985046121037842,0.26364040396762334,0.23276610720097757,0.20629716828428946,0.18467948339979934,0.16841860316026125,0.15811290882337625,0.154489621287364
1.0,1.0,0.972283381340168,0.9412589736308659,0.9070796148381292,0.8699688492527129,0.8302179221007846,0.7881804358626352,0.7442649260454255,0.6989257583162808,0.6526528785498033,0.6059610541374553,0.5593793219036589,0.5134414000509507,0.4686778256101769,0.42561054378743046,0.3847506020061009,0.3465994912962793,0.31165453376083263,0.28041854023956303,0.2534137600106815,0.23119991714812493,0.21439587853745146,0.2037042292901643,0.1999377460388284
1.1,1.0,0.9750964072927072,0.9471929412183773,0.91639350327846,0.8828611372349392,0.8468170215676798,0.8085377624376576,0.7683511345058122,0.7266305212219496,0.6837884040201079,0.6402693351529478,0.5965428960416983,0.5530971871457926,0.510433412589036,0.4690621103514909,0.4295015351278362,0.39227862543983893,0.35793287974482624,0.3270233294571787,0.3001386321442161,0.27791011859544534,0.26102741677189967,0.2502560486362887,0.24645615868483062
1.2000000000000002,1.0,0.977498653650691,0.9522663609541956,0.9243723650117717,0.8939360025366812,0.8611269724733748,0.8261643734314554,0.7893145935837445,0.7508882118293063,0.7112361414057383,0.6707453123161629,0.6298342425476411,0.5889488860187506,0.548559163907741,0.5091565825273521,0.4712533130455918,0.43538305477811,0.40210392408812645,0.37200350567439433,0.34570607375642304,0.32388183997938236,0.3072579164778866,0.29663050138359404,0.2928776063645433
1.3,1.0,0.9795764874552998,0.9566590803194679,0.9312923704590608,0.9035638863590101,0.8736051771386332,0.8415920086683731,0.8077437171654118,0.7723218195573855,0.7356280326880094,0.698001901859702,0.6598182799518914,0.621484928187,0.5834405255472133,0.5461533732739183,0.5101210617386658,0.4758713278444475,0.44396427134622996,0.4149960182733986,0.3896038201344888,0.36847246093324926,0.3523417134350839,0.34201444590892205,0.33836483616699264
1.4000000000000001,1.0,0.9813935894059664,0.9605039357869557,0.9373580975558327,0.9120203430418063,0.8845937461650467,0.8552211457380876,0.8240854899968801,0.7914096263741256,0.757455634518074,0.7225238357660986,0.6869516422224036,0.6511124307811268,0.6154146395210458,0.5803012837670365,0.5462500750318877,0.5137742967796959,0.4834245458530798,0.4557913875487214,0.4315088965651094,0.411258967093448,0.39577617578817537,0.3858528747668273,0.38234408258399544
1.5,1.0,0.9829977732251498,0.963900807308148,0.9427237376371652,0.9195137709422417,0.8943525878908848,0.8673577934208108,0.8386839212926612,0.8085230264459431,0.7771049257072495,0.7446971725022626,0.7116048726202835,0.6781704639021211,0.6447735911652035,0.6118312071064997,0.5797980189664212,0.54916737839852,0.5204726777410451,0.49428926975243104,0.4712368705073793,0.4519823378926642,0.43724264305164806,0.4277877719919547,0.42444321288519815
1.6,1.0,0.984425492342979,0.9669259378946803,0.9475072382348851,0.926204061310854,0.903081911135039,0.878238879767087,0.8518070783397708,0.8239537627479682,0.7948821884435313,0.7648322463040897,0.734080946412358,0.70294282740311,0.6717703744543841,0.6409545277799698,0.6109253545806926,0.5821529400692602,0.5551485269903383,0.5304658980342164,0.5087029521964933,0.49050337550817835,0.47655825025020704,0.46760738693602044,0.46444010269712765
1.7000000000000002,1.0,0.9857049227757669,0.969638325480453,0.9518000457705722,0.9322155263555918,0.9109379558790689,0.888050190184203,0.8636664444920001,0.8379337598880066,0.8110332603671295,0.7831812286044434,0.7546300386068596,0.7256689904305629,0.6966250952203998,0.6678638570209701,0.6397900903509905,0.6128487988566867,0.5875261201697148,0.5643503154184921,0.5438927490788288,0.5267687668074873,0.5136383368146179,0.5052062758596068,0.5022218361688711
1.8,1.0,0.9868581278674823,0.9720842198479895,0.9556739822272081,0.9376460664572684,0.9180442156584917,0.8969392628080107,0.874430967236292,0.8506496845785009,0.8257578738321638,0.7999514529856107,0.7734610210761601,0.7465529687626452,0.7195305008198325,0.6927345917095326,0.6665448889895533,0.6413805683779062,0.6177011285891905,0.596007093641402,0.5768405655142858,0.560785541452383,0.5484678787970778,0.540554757274645,0.5377534557397243
1.9000000000000001,1.0,0.9879026077453908,0.9743003458988246,0.9591861857414964,0.9425737783424462,0.9244995624212209,0.9050247755070235,0.8842373526855563,0.8622537026190462,0.839220355882745,0.8153154854967066,0.7907503033169753,0.76577033814052,0.7406566014407956,0.7157266440987131,0.6913355019209892,0.6678765188553178,0.6457820244828001,0.6255238266402533,0.6076134611575456,0.5926021191786619,0.5810801491025914,0.5736760058059267,0.5710544956963888
2.0,1.0,0.9888524238628416,0.9763162453667065,0.9623827060599771,0.9470617756734817,0.9303841921633039,0.9124034422005024,0.8931976651510101,0.872871466738812,0.8515576316842431,0.8294187273063351,0.8066485919926372,0.7834737031790697,0.7601544186634119,0.7369860823509486,0.7142999806127318,0.6924641281270614,0.6718838522888841,0.6530021330640496,0.6362996407487266,0.6222943978553169,0.6115409738528389,0.6046291034906466,0.6021816018487164
2.1,1.0,0.9897190234747492,0.9781559949720943,0.9653011459219751,0.9511617368242387,0.9357640110017524,0.9191551153475304,0.9014049706051421,0.8826080752766736,0.8628852287450393,0.8423851603761409,0.8212860519583998,0.799796940562022,0.7781589874859645,0.7566465961618123,0.7355683575019832,0.7152677950828132,0.696123874695297,0.6785512332358257,0.6630000708234998,0.6499556377269662,0.6399372346052624,0.6334966312920346,0.6312157965859173
2.2,1.0,0.9905118487900866,0.9798394766057444,0.9679726157023969,0.9549165339883254,0.9406938916206429,0.9253465833796082,0.9089375493653894,0.8915525369963767,0.8733017976529847,0.8543217014268498,0.8347762531089284,0.8148584915831201,0.794791752994076,0.7748307752592214,0.7552626175618348,0.7364073633109596,0.7186185686667801,0.7022834111670069,0.6878224844004305,0.6756891753052017,0.6663685508702433,0.6603756712380329,0.6582532369901335
2.3000000000000003,1.0,0.9912387898611936,0.9813833221500085,0.9704231885987021,0.9583621928803477,0.9452201045506368,0.9310344118815643,0.9158620564791005,0.8997811322381744,0.8828925307749484,0.86532151486283,0.8472192004494985,0.8287639264096671,0.8101624891612423,0.7916512165266598,0.7734968516696936,0.7559972135328252,0.7394815949425619,0.7243108535003508,0.7108771436626897,0.699603231236678,0.6909413241536461,0.6853713461861866,0.6833985736661734
2.4000000000000004,1.0,0.9919065231670652,0.982801620162087,0.9726749899067071,0.9615293613515705,0.9493821430266158,0.9362670804659474,0.9222359049729757,0.9073599563306262,0.8917317611241322,0.8754665472433782,0.8587036737748281,0.8416079537859815,0.8243708453602798,0.807211483583201,0.7903775229581769,0.7741457559209359,0.7588224687375458,0.7447434911742691,0.7322738910267489,0.7218072590574343,0.7137645243362236,0.708592234689208,0.7067602322662647
2.5,1.0,0.9925207661029549,0.9841064472877697,0.9747470167949502,0.9644444159468888,0.9532141001640958,0.9410865988406834,0.928109073260325,0.9143468555330589,0.8998849502561677,0.8848294791902573,0.8693090476322171,0.8534760092980913,0.8375076043446723,0.8216069426134467,0.8060038012460329,0.790955202491066,0.7767457338221587,0.7636875684728082,0.7521201402632516,0.7424094222842412,0.7349467547945709,0.7301471638064951,0.7284471085391242
2.6,1.0,0.9930864693350397,0.9853082701295168,0.9766557587730025,0.9671303004922276,0.9567457144432,0.9455297364817747,0.9335254845919996,0.9207929105418269,0.9074102198512759,0.8934752405605646,0.8791067195349677,0.8644455231003842,0.8496557166349711,0.8349254953230371,0.8204679355965208,0.806521533853652,0.7933504958830008,0.7812447370894581,0.7705195502015951,0.7615148937537798,0.7545942514304456,0.7501430095151335,0.7485662974143117
2.7,1.0,0.993607963082315,0.9864162510296929,0.9784156702617278,0.9696071656923942,0.9600031686527662,0.9496289647570864,0.9385240675302221,0.9267435820895957,0.9143595415774006,0.9014621973457428,0.8881612420841001,0.874586943122875,0.8608911610310717,0.847248226340179,0.8338556447710236,0.8209345987307471,0.808730210115637,0.7975115266550535,0.7875711912374853,0.779224750971306,0.7728095602743974,0.7686832302070127,0.7672215747321677
2.8000000000000003,1.0,0.9940890691268223,0.9874384823609044,0.9800395330678022,0.9718928605011127,0.9630097050186395,0.9534131844004626,0.9431395779369525,0.9322396033808288,0.9207796702142016,0.9088430909560286,0.8965312304148318,0.8839645708652376,0.8712836690885313,0.8586499790670674,0.8462465118690667,0.8342783019244737,0.8229726465082489,0.8125790828646466,0.8033690650920289,0.7956353007485776,0.789690705239771,0.7858669305321326,0.7845124237450505
2.9000000000000004,1.0,0.9945331872501116,0.9883821674529535,0.9815387366417728,0.9740033127209189,0.9657861028346897,0.9569082922180053,0.9474032420380141,0.9373176821590488,0.926712883120876,0.9156657899062545,0.904270098283713,0.892637252642797,0.8808973422932934,0.8691998711841835,0.8577143739267742,0.8466308489032388,0.8361599771412395,0.8265330935843963,0.8180018754477232,0.8108377105917912,0.805330707368942,0.8017883062931819,0.8005334532793047
3.0,1.0,0.9949433625220165,0.9892537615531011,0.9829234967272827,0.9759528265329391,0.9683510528694134,0.9601376269258756,0.9513432647100686,0.9420110590067656,0.9321975729358246,0.9219738986071405,0.9114266626354538,0.9006589584851387,0.8897911837706121,0.8789617587535548,0.8683277003716144,0.8580650242300623,0.8483689451222031,0.8394538448602804,0.8315529745509809,0.8249178570045279,0.8198173538011858,0.8165363607421923,0.8153740950821075
3.1,1.0,0.9953223381987488,0.9900590827383405,0.984203027663167,0.9777543174788369,0.9707214539534703,0.9631223237160962,0.9549852357669345,0.9463499565164777,0.9372687284139821,0.927807256614292,0.9180456464695163,0.9080792729260484,0.8980195611681149,0.887994656091093,0.8781499564311193,0.868648487648137,0.8596710859907781,0.8514163646045874,0.8441004311298527,0.837956325030402,0.8332331419677542,0.8301948119621121,0.8291184979467545
3.2,1.0,0.9956725977581015,0.9908034001365031,0.9853856796611848,0.979419500126383,0.9729126506136522,0.9658815995433248,0.95835245862348,0.95036194512702,0.9419583294381804,0.933202353271168,0.9241681023828265,0.9149438159878012,0.9056326134511873,0.8963531171964532,0.8872399491463557,0.8784440764377272,0.8701329806493903,0.8624906233945566,0.8557171799002439,0.8500285111790196,0.8456553446522641,0.8428421326754478,0.8418455584169424
3.3000000000000003,1.0,0.9959963986926972,0.9914915049227546,0.9864790494752167,0.9809590397443008,0.9749386257889673,0.9684329855074013,0.9614662195060355,0.954072244875533,0.946295675671732,0.9381926764408821,0.9298317736343156,0.9212946082390331,0.9126766114213929,0.9040875834583473,0.8956521547356071,0.8875101061502689,0.8798165248973403,0.8727417703810887,0.8664712239147012,0.8612047950026098,0.8571561563918857,0.8545516797905864,0.8536290442448573
3.4000000000000004,1.0,0.9962958000123109,0.9921277681615326,0.9874900707297642,0.9823826764252443,0.9768121590936554,0.9707925185510015,0.9643460107831472,0.9575039774692136,0.9503076634503724,0.9428090093900084,0.935071405465375,0.9271703905066083,0.9191942795707033,0.9112447015232539,0.9034370268202822,0.8959006643610339,0.8887792050490877,0.8822303885868836,0.8764258690758044,0.871550754242981,0.8678028926143173,0.8653918827524736,0.8645377788341069
3.5,1.0,0.996572684910881,0.9927161885311332,0.9884250885867255,0.983699327959953,0.9785449584492081,0.9729749016151523,0.9670097185867035,0.9606783794889687,0.9540190218994835,0.9470796864471775,0.93991901635045,0.9326069063587755,0.9252250852309178,0.9178676145693975,0.910641285555624,0.9036658939167198,0.8970743723307343,0.8910127584726868,0.8856399760545687,0.8811274055568746,0.8776582209299741,0.8754264684067659,0.8746358637627156
3.6,1.0,0.9968287796870917,0.9932604322035045,0.9892899222529489,0.9849171761838215,0.9801477709496786,0.9749936391152804,0.9694737823695851,0.9636149848717687,0.9574525165796758,0.9510308155005316,0.9444041365714255,0.9376371536341862,0.9308054997301326,0.9239962297216554,0.9173081880691555,0.9108522634760056,0.9047515110864349,0.8991411220103723,0.8941682191873818,0.8899914580242526,0.8867804098860539,0.8847147064299223,0.883982922988426
3.7,1.0,0.9970656697356403,0.9937638665851348,0.9900899179590651,0.9860437403444183,0.9816304773726241,0.9768611529087753,0.9717533321723202,0.9663317828382834,0.96062912696842,0.9546864734920146,0.9485540198063547,0.9422916099091229,0.9359692353230246,0.9296674639430587,0.923477780847567,0.9175028240867537,0.9118564975206447,0.9066639419491915,0.9020613450899176,0.8981955704455034,0.8952235847999546,0.8933116640248849,0.8926343571064332
3.8000000000000003,1.0,0.997284813224698,0.994229589204485,0.9908299943930043,0.9870859401680094,0.9830021736698968,0.978588882668271,0.9738623079783247,0.9688453559589272,0.9635682025987452,0.9580688796436665,0.9523938321480108,0.9465984357549959,0.9407474609420539,0.9349154704193071,0.9291871348624167,0.9236574512140432,0.9184318469236209,0.9136261527378127,0.9093664260311082,0.9057886062071552,0.90303798343844,0.9012684619787811,0.90064159951542
3.9000000000000004,1.0,0.9974875529253137,0.9946604527190611,0.9915146820907683,0.988050150656122,0.984271241970768,0.9801873736397098,0.9758135645000477,0.9711710019529737,0.9662876015660101,0.961198550086347,0.9559468220101609,0.9505836588519859,0.9451689992652949,0.9397718471950531,0.934470564311728,0.9293530721027266,0.924516948202314,0.9200694008476681,0.9161271047819818,0.9128158815125965,0.9102702066021789,0.9086325266548196,0.9080523688889902
4.0,1.0,0.9976751265470858,0.9950590867828147,0.9921481579291501,0.98894225016143,0.9854454130326147,0.9816663540671136,0.9776189639643164,0.973322841994628,0.9688038142827854,0.9640944367620636,0.9592344736575638,0.9542713414275714,0.9492605071710263,0.9442658296102329,0.9393598298966405,0.9346238786812657,0.9301482851594908,0.9260322731638004,0.9223838288607146,0.9193194042346996,0.9169634603389101,0.9154478342884235,0.9149109141956576
4.1000000000000005,1.0,0.9978486758513846,0.995427917341285,0.9927342755982139,0.9897676629328187,0.9865318216285158,0.9830348040450829,0.97928945888614,0.9753139176849294,0.9711320747378409,0.9667740528688586,0.9622766465489666,0.9576837330324169,0.953046641317964,0.948424467910649,0.9438843275630445,0.9395015264303118,0.9353596443989629,0.9315505127645828,0.9281740729603245,0.925338101698781,0.9231577877093344,0.9217551452571412,0.9212582498454478
4.2,1.0,0.9980092547513592,0.9957691837924241,0.9932765927318442,0.9905313970506551,0.9875370560273418,0.9843010171697121,0.9808351663857197,0.977156278385955,0.9732864610447447,0.9692535866613933,0.9650917022660279,0.9608414103150179,0.9565502103296973,0.9522727912612106,0.9480712636273403,0.944015319779307,0.9401823100344484,0.9366572218726643,0.9335325489602995,0.930908036455944,0.9288902888909933,0.9275922269274138,0.9271323795006917
4.3,1.0,0.9981578365614854,0.9960849543540289,0.9937783952251085,0.991238078471615,0.9884672024713043,0.9854726560651296,0.9822654352761476,0.9788610602647061,0.9752799867092368,0.9715480050734966,0.9676966204819794,0.963763405184157,0.9597923148551454,0.9558339592666328,0.9519458171801366,0.9481923846789375,0.9446452455809055,0.9413830520787514,0.9384914033553118,0.9360626096388286,0.9341953290175872,0.9329940643464931,0.932568507772842
4.4,1.0,0.9982953205244711,0.9963771399057496,0.9942427191546557,0.9918919817505621,0.9893278853670018,0.986556802641304,0.9835889069016913,0.9804385581292018,0.9771246837731269,0.9736711483632886,0.9701071051773918,0.9664673225350071,0.9627924766107386,0.9591294019983626,0.9555312906269573,0.9520578290423913,0.9487752635373488,0.9457563821560202,0.9430804022325407,0.9408327518632823,0.9391047335813018,0.9379930585166775,0.9375992395099249
4.5,1.0,0.9984225377169659,0.9966475065185594,0.9946723706333551,0.9924970578921282,0.9901243037629258,0.9875600037706407,0.984813570518233,0.9818982909372002,0.97883167878441,0.9756358167765232,0.9723376821184376,0.968969448546063,0.9655687573749409,0.9621789494345442,0.9588492491845099,0.9556348917656986,0.9525971832491796,0.9498034839244948,0.9473271041304663,0.9452471018940592,0.9436479715230108,0.9426192123145729,0.9422547667149331
4.6000000000000005,1.0,0.9985402564155219,0.9968976868427823,0.99506994386582,0.993056959697333,0.9908612645774343,0.9884883129425986,0.9859468138633087,0.9832490617026632,0.9804112623825725,0.9774538500642952,0.9744017884620383,0.9712848504191819,0.9681378687944686,0.9650009511393114,0.9619196501074119,0.9589450810354022,0.9561339776805878,0.9535486767124762,0.951257021243079,0.9493321734623593,0.9478523263359415,0.9469003043393308,0.9465630433640705
4.7,1.0,0.9986491869889979,0.9971291904938694,0.9954378376221417,0.993575064903781,0.9915432129576917,0.9893473283569727,0.9869954694520525,0.9844990124048099,0.9818729531628432,0.9791362005659451,0.9763118552322291,0.9734274683257929,0.9705152737687646,0.9676123869365284,0.9647609623753148,0.9620083026165983,0.9594069097443361,0.9570144710114022,0.9548937695139839,0.9531125107314409,0.9517430556392074,0.9508620511194574,0.9505499485447377
4.800000000000001,1.0,0.9987499863718786,0.997343413550602,0.9957782703092095,0.9940544973665061,0.9921742600855825,0.990142227840123,0.9879658570489473,0.9856556744106071,0.9832255563846157,0.980693000468493,0.9780793833155013,0.9754102002328213,0.9727152801009078,0.9700289692697419,0.967390277525399,0.9648429787904756,0.9624356588350592,0.9602217019425655,0.958259208209278,0.9566108329709323,0.9553435397581007,0.9545282581989432,0.9542394384281313
4.9,1.0,0.9988432621639146,0.9975416472614088,0.99609329378957,0.9944981464865341,0.9927582086963653,0.9908778009087567,0.9888638226974518,0.9867260148473468,0.9844772180109091,0.9821336237739994,0.9797150135442534,0.9772449802075472,0.9747511270361551,0.9722652378833101,0.9698234122711148,0.9674661585810752,0.9652384381987886,0.9631896531571141,0.9613735695769353,0.9598481690335439,0.9586754198925622,0.9579209606755796,0.957653687646181
5.0,1.0,0.9989295763944002,0.9977250860396396,0.9963848060747289,0.994908685062866,0.9932985765363173,0.9915584782587474,0.9896947746357713,0.9877164793027297,0.9856354745026888,0.9834667434412682,0.9812285913726391,0.9789428507381399,0.9766350652514058,0.9743346474084629,0.9720750035054111,0.9698936198784214,0.9678321037499035,0.9659361717806839,0.9642555792014594,0.9628439822388886,0.9617587264743276,0.9610605537887792,0.9608132206689243
