,0.0,0.13043478260869565,0.2608695652173913,0.3913043478260869,0.5217391304347826,0.6521739130434783,0.782608695652174,0.9130434782608696,1.0434782608695652,1.1739130434782608,1.3043478260869563,1.4347826086956519,1.5652173913043474,1.695652173913043,1.8260869565217386,1.9565217391304341,2.08695652173913,2.2173913043478257,2.3478260869565215,2.4782608695652173,2.608695652173913,2.739130434782609,2.8695652173913047,3.0000000000000004
0.0,1.0,0.0,0.0,0.0,0.0,0.0,0.0,0.0,0.0,0.0,0.0,0.0,0.0,0.0,0.0,0.0,0.0,0.0,0.0,0.0,0.0,0.0,0.0,0.0
0.1,1.0,0.6690708439809705,0.4476557990805721,0.2995134538161635,0.2003957374007723,0.13407897395854415,0.08970837684621694,0.06002132755257484,0.040158623891457544,0.026869121544082164,0.017977583984552736,0.012028638011883414,0.008048557244994975,0.005385882139274809,0.0036047891399918135,0.0024137556509247174,0.0016178448036509323,0.0010868002087068172,0.0007337287916048569,0.0005008830804885938,0.00035021665450894984,0.0002571681880123797,0.00020665866764489821,0.0001906496470836649
0.2,1.0,0.8037761958704305,0.6279106855434263,0.4804184602077272,0.3617802126043992,0.26905122560572775,0.19807587308334307,0.1446115691978901,0.10484143932239685,0.07555720640842288,0.054174422323719676,0.038670984629074256,0.027498052559105833,0.019488374453196382,0.013773512092697442,0.00971413652890184,0.006843843361377982,0.004825222873134886,0.0034162990926983145,0.002445389968241704,0.0017926402897946027,0.0013767793720174898,0.001145976235389335,0.0010719709049129102
0.30000000000000004,1.0,0.8523700183129265,0.7110818081687331,0.5821008048039017,0.4687368942376303,0.3720911129040308,0.2917151500310084,0.22622187294525642,0.1737588864556694,0.1323366856659243,0.10003422012707891,0.07511265211202237,0.05606592578725211,0.041631082598384016,0.03077514926785939,0.022670144870763794,0.016663658848767676,0.01224949539825228,0.009040864649914614,0.006747302612325413,0.005155718948853736,0.004115543890367632,0.003527753706641379,0.003337514033586152
0.4,1.0,0.8776466287932069,0.7579977125616464,0.6447700701927783,0.5407276133676784,0.44757602945299657,0.36605184924416645,0.2961113856435465,0.23714912042478256,0.18820251007787267,0.1481220482861267,0.11570009187803149,0.08976047588529536,0.06921504922804889,0.053094563124176375,0.04056106358543018,0.030907907217766453,0.02355224720978708,0.018023607256596158,0.013951109494188452,0.011051092610433045,0.0091162430481223,0.008006936892650838,0.00764521537662758
0.5,1.0,0.8935901017484712,0.7885047484270711,0.687238949529055,0.5918776215721894,0.503974720034045,0.4245204992741255,0.3539773264904875,0.29235889242899976,0.2393297065439872,0.19430722443845244,0.15655508397220153,0.12526127908110782,0.09959912831832153,0.07877156787285335,0.06204083211605665,0.04874627233475049,0.03831318778602952,0.030255332667319258,0.024173386975160947,0.019751251392665477,0.016751614023556967,0.01501187436700474,0.014441208754047311
0.6000000000000001,1.0,0.9047931830809356,0.8102505443909449,0.7181744036778676,0.6301603905687091,0.5475115050951529,0.47119160515228037,0.4018164920136201,0.33967547455818303,0.2847740022278577,0.23688796742582954,0.1956216929805688,0.1604636558076723,0.13083609774422358,0.1061365115100629,0.08577041824817666,0.06917584995487984,0.05584056231297791,0.04531330911851695,0.03721059247143977,0.031220238300355547,0.027102994484491785,0.024693151914667116,0.02389897487519752
0.7000000000000001,1.0,0.9132156241859429,0.8267322077411369,0.7419248104419782,0.6600519416256279,0.5821966849081242,0.5092269951316725,0.441776576127787,0.3802448710731422,0.3248127443199518,0.2754694741143823,0.23204655747696293,0.19425430186010545,0.16171798495962353,0.13401128859368364,0.11068560117405915,0.09129454366017006,0.0754136640983232,0.0626556599461254,0.052681741513841814,0.0452098710525099,0.04002063015925117,0.036961410907891984,0.03594951622469135
0.8,1.0,0.9198476047852815,0.8397780578256843,0.7608836462792956,0.6841856880139814,0.6105932519848128,0.5408720885989348,0.4756253720650245,0.4152863857584627,0.3601220635656317,0.3102454633179441,0.26563481862150706,0.2261567449167591,0.1915913766307939,0.16165758529989888,0.13603688195270192,0.11439506786256022,0.09640111513535456,0.08174310252065387,0.07014128942328048,0.061358581810741906,0.05520873485172767,0.05156266006342365,0.05035317224668591
0.9,1.0,0.9252499896636251,0.8504440994930911,0.7764771187892667,0.7041983051157658,0.6343815173870913,0.5677012288094132,0.5047157013428067,0.4458578288771092,0.3914334357321394,0.34162623574838996,0.29650826041275424,0.25605436018372807,0.22015935118806082,0.1886564823589039,0.1613360916779309,0.13796356144983485,0.1182959347458994,0.10209679034951008,0.089149173000875,0.07926652911590334,0.0723017018938017,0.06815409532567769,0.0667751290000543
1.0,1.0,0.9297675796419255,0.8593876723227469,0.7896113570530324,0.7211594744267542,0.6547003843295259,0.5908313326125396,0.5300643846487373,0.4728174547503103,0.4194105296010117,0.37006680041516965,0.324918116765486,0.2840139721603451,0.2473331290299114,0.21479697812663553,0.18628378597168357,0.16164309185183284,0.14070965093945453,0.12331646279668804,0.10930655919467945,0.09854334070153394,0.09091934117833937,0.08636336044323248,0.08484593848602295
1.1,1.0,0.9336257514233017,0.8670421515141734,0.8008923442096862,0.7357989739065177,0.6723472117282772,0.6110701136461755,0.5524370199426383,0.4968454552181119,0.4446167227157085,0.39599513411889325,0.35115059858827313,0.3101841274600907,0.2731357004267906,0.23999388450726986,0.21070659230119423,0.18519240076323598,0.1633519141031878,0.1450787324087005,0.1302696703954783,0.11883394955462029,0.11070115560029506,0.10582780780795706,0.10420242629739236
1.2000000000000002,1.0,0.9369789443245647,0.8737063613843914,0.8107422814045804,0.7486327235338048,0.6878964766595271,0.6290134504664967,0.5724151264154265,0.51847748506114,0.467516616789137,0.4197870537638861,0.3754827058297036,0.3347401530769633,0.29764394945753986,0.26423352770540076,0.23451126470135633,0.2084512642706327,0.1860084353194814,0.16712748045094564,0.1517514570289301,0.1398296230878196,0.1313243297209894,0.12621676630998413,0.12451140342383053
1.3,1.0,0.9399369701952314,0.8795937653861283,0.8194651130287696,0.7600362095275762,0.7017722480023394,0.6451090390032438,0.590445124571659,0.538135688069154,0.4884884503546526,0.4417616267812977,0.3981639081019144,0.3578563292062954,0.3209558080748732,0.2875400765082017,0.25765368491212015,0.23131474457682485,0.20852206991117755,0.18926239648949963,0.1735173746686918,0.16127006917494455,0.15251072916311484,0.1472416282887326,0.14548080866587054
1.4000000000000001,1.0,0.942580215560348,0.8848611788905012,0.8272854425275945,0.7702892091400942,0.7142939132852075,0.6596985840353484,0.6068732950143458,0.5561539433196133,0.507838522524404,0.46218497335828873,0.41941061455641365,0.37969308090609266,0.34317262980925844,0.3099556245413969,0.2801189632936476,0.2537151982495431,0.23077807753765103,0.21132824331625163,0.19537882943186563,0.18294071984404567,0.17402725222988005,0.16865817809297562,0.16686271996899604
1.5,1.0,0.9449688965800793,0.8896263880149377,0.8343727367505511,0.7796041635321794,0.7257059924689693,0.6730463653494312,0.6219707625987823,0.5727975235978877,0.5258145055344946,0.4812769612825781,0.4394066568375569,0.40039219115365576,0.36439042888953094,0.3315289119138788,0.3019090799975678,0.27561010566751437,0.25269313274528754,0.2332057020830304,0.2171861504707554,0.20466777841873643,0.19568259824679923,0.19026449444222765,0.1884516525567131
1.6,1.0,0.9471489507315285,0.8939794376325799,0.8408570035982906,0.7881448516461561,0.7361981970130921,0.6853590404745511,0.6359515485506502,0.5882781947012167,0.5426167770667901,0.4992183852475414,0.4583063436235555,0.4200761143313927,0.3846961014926899,0.3523092615191992,0.32303539369818846,0.29697396169020407,0.27420728045951104,0.254803894491178,0.23882197157303744,0.2263125413412301,0.21732241847128472,0.21189666605956453,0.21008047461933682
1.7000000000000002,1.0,0.9491559359757844,0.8979901415739049,0.8468393176320371,0.7960390940263468,0.7459193246197827,0.6967996971332503,0.6489858043719082,0.6027658003891297,0.5584077368306063,0.5161576425352015,0.4762383752818595,0.4388492401744522,0.4041663362459374,0.3723435629236337,0.3435141922298273,0.3177928918763998,0.29527806930051304,0.2760543974239017,0.26019537947545013,0.24776581235379047,0.23882401532285102,0.2334237028233436,0.23161539628318129
1.8,1.0,0.9510177003417908,0.9017132474232765,0.8523991135998579,0.8033876529592785,0.7549871398150011,0.7074980441128293,0.6612096600700472,0.6163971874883944,0.5733193439769123,0.5322165619454654,0.49330979796866253,0.45679995529691153,0.4228678941877054,0.3916749805134814,0.36336410177070233,0.3380610619605387,0.31587625340346104,0.2969064947333808,0.28123692022781777,0.2689428062206003,0.26009122541066654,0.2547424291003829,0.25295087035227815
1.9000000000000001,1.0,0.9527562643377471,0.9051920919714604,0.8575993812687068,0.8102706297083865,0.7634955634441977,0.717557945515367,0.6727326556820359,0.6292831221912931,0.587459169687648,0.5474953287940048,0.5096096325396864,0.4740029037848711,0.4408585170631526,0.4103425987543083,0.3826046120245632,0.357778258214312,0.33598261484177155,0.31732342249036083,0.30189442876069583,0.2897786972450656,0.28104979303518973,0.27577276339461265,0.2740048426046229
2.0,1.0,0.9543891822247731,0.9084612528563196,0.8624904534821854,0.8167521644738942,0.7715200076673769,0.7270630835605222,0.6836434177669491,0.6415136818290789,0.6009152411453287,0.5620765683074643,0.5252120442666319,0.49052115319280043,0.4581880604144401,0.4283815471473182,0.4012552615055798,0.3769482331083851,0.3555855889163435,0.33727940109818977,0.32212959395821994,0.3102248363428465,0.30164334846519364,0.29645355760520564,0.2947145454257837
2.1,1.0,0.9559305475386995,0.9115485121970024,0.8671128233520979,0.8228839530993717,0.7791213999951313,0.7360812735318708,0.6940140397431371,0.6531624809349605,0.6137599129845405,0.5760286923813249,0.5401790327317677,0.5064081373738559,0.47489964163470644,0.44582334568615034,0.4193352074435489,0.3955775549864736,0.3746794699529793,0.35675728757840036,0.3419151557233572,0.330245594471457,0.3218299996825755,0.31673903817445226,0.31503288879643526
2.2,1.0,0.9573917489415054,0.914476335678755,0.8714992735726103,0.8287079180663024,0.7863492591460627,0.7446677884621818,0.703903490171513,0.6642899988380242,0.6260529602853948,0.589408622472017,0.5545626736515501,0.5217093347288513,0.4910307022775757,0.46269632860502313,0.4368630159615027,0.41367479388391004,0.3932630420680072,0.3757467163443973,0.36123263247607457,0.3498157617061511,0.34157949328558485,0.33659582254397713,0.3349254282960182
2.3000000000000003,1.0,0.9587820465005186,0.9172630020769621,0.875676506933776,0.8342582616696383,0.7932440712863658,0.7528679436232872,0.713360282280859,0.6749462096465183,0.6378440498129107,0.6022639942413531,0.5684069652781069,0.536463684417968,0.5066139438869133,0.4790260720423919,0.45385657561117115,0.43124993521604654,0.4113385252579089,0.3942426252399984,0.3800704872078736,0.3689184232276208,0.3608708777643218,0.3560004524132907,0.3543678545732541
2.4000000000000004,1.0,0.9601090160429777,0.9199234753175578,0.8796664078636838,0.8395630593479191,0.7998391412410136,0.7607191196577004,0.7224245757571324,0.6851726671305735,0.6491747150333937,0.614634936849963,0.5817493370508595,0.5507047633782857,0.521678128359942,0.49483578978951154,0.4703330777996196,0.4483139508460795,0.42891075854419103,0.41224408603225077,0.39842265252025455,0.38754323599669227,0.37969059674194644,0.3749373743059692,0.37334393586910886
2.5,1.0,0.9613788948399643,0.9224700835667419,0.8834870264421799,0.8446455053817105,0.8061620441468058,0.7682523548948881,0.7311298382620796,0.6950041614415181,0.6600799351274279,0.6265555058774136,0.5946218755889218,0.5644617545999292,0.5362487496319649,0.5101466826227964,0.4863090316677537,0.46487848100863216,0.44598656345930643,0.42975337598799646,0.41628734750055235,0.40568503725821903,0.3980309428436083,0.3933972981410748,0.391843844358602
2.6,1.0,0.9625968523943608,0.9249130515966923,0.8871533507937145,0.8495248924408263,0.8122357695750559,0.7754936038751996,0.7395041630617305,0.7044700381090476,0.6705893979161073,0.638054835669576,0.6070523172827678,0.5777602381692621,0.5503485903891345,0.5249782380692377,0.5018002951239586,0.4809555958549292,0.462574246134502,0.4467752407008365,0.43366613070509785,0.4233427251128349,0.4158888098954846,0.41137587014064714,0.40986280221124105
2.7,1.0,0.9637672036978144,0.9272609202932192,0.8906779163351185,0.8542173852908461,0.8180796268218028,0.7824647353069573,0.7475713165282281,0.7135952497767422,0.6807285104156292,0.6491580652385718,0.6190648499093183,0.5906228344867144,0.5639981796730984,0.5393484831153291,0.5168221119789203,0.4965576152396864,0.47868320681260285,0.4633163088635578,0.45056314350203003,0.4405183605804445,0.43326468954907815,0.4288726042241524,0.4273999908817855
2.8000000000000003,1.0,0.9648935778760951,0.92952087855633,0.8940712881559857,0.8587366340318521,0.8237099634109958,0.7891843254285963,0.7553515725291238,0.7224011958963328,0.6905192078306435,0.6598870818626826,0.630680758970319,0.603069725657413,0.5772161669673874,0.5532741948586938,0.5313891498754313,0.5116969718114535,0.49432363318569467,0.47938462790031516,0.4669845065031004,0.4572164490613783,0.4501618667934488,0.44589002428798563,0.44445767534104297
2.9000000000000004,1.0,0.9659790519845687,0.9316990267072391,0.8973424440748401,0.8630942614661328,0.82914073671959,0.7956682900014447,0.7628623781211084,0.730906393861385,0.6999806015212512,0.6702611181886934,0.6419189483426131,0.6151190773085713,0.5900196269521656,0.5667710748777461,0.5455155363995486,0.5263861067524876,0.509506259487522,0.494989295816198,0.48293783888040787,0.4734433665591752,0.4665857764984059,0.46243297755678026,0.46104050277676967
3.0,1.0,0.9670262574235615,0.9338005860488844,0.9004990795291461,0.867300251262529,0.8343839696247131,0.8019303885883334,0.7701188853660729,0.7391270159430812,0.709129498293878,0.6802972317557467,0.6527963595123635,0.6267873794935518,0.6024243072904649,0.5798538929933242,0.5592148922533707,0.5406373904202951,0.5242421773725779,0.5101401696927739,0.49843187618291557,0.4892069023932987,0.4825434898625152,0.4785080861338253,0.4771549423034458
3.1,1.0,0.9680374647478748,0.935830065915312,0.9035478507047401,0.8713632576507856,0.8394501142808964,0.8079826274890868,0.7771343766938824,0.7470773192616572,0.717980816843401,0.6900106902337861,0.6633283091618221,0.6380897221145361,0.6144448299354209,0.5925366055861924,0.5725003611714604,0.5544630621559091,0.5385426877017911,0.5248476352625994,0.5134761670189727,0.504515895456564,0.498043305372252,0.4941233098518242,0.4928088382737952
3.2,1.0,0.9690146513698538,0.9377913970505394,0.9064945687186858,0.875290852874101,0.8443483429477973,0.8138355820981084,0.7839206054921792,0.7547699904236143,0.7265479219724469,0.6994152811002987,0.673528761127902,0.6490400175054817,0.6260948547038376,0.604832452971808,0.5853846366703164,0.5678751849480627,0.5524191847086264,0.5391224251666632,0.5280808328279635,0.5193799454716309,0.5130944236703028,0.5092875985540324,0.508011054893143
3.3000000000000003,1.0,0.9699595556838929,0.9396880382533852,0.9093443549211483,0.8790897251677945,0.8490867807852047,0.8194986550966159,0.7904880691105115,0.762216422032433,0.7348428930639106,0.708523560784139,0.6834105456665889,0.6596511804624053,0.6373872123210088,0.616754039652901,0.5978799859070774,0.5808856116706349,0.5658830658326806,0.5529754760152995,0.5422563780819214,0.5338091843018814,0.5277066896856228,0.5240106161062766,0.5227711940808145
3.4000000000000004,1.0,0.970873720391743,0.9415230617559047,0.9121017652573798,0.8827658373494427,0.853672692416522,0.8249802834888582,0.7968462279330296,0.769426934779264,0.7428767399704023,0.7173470553267639,0.692985536438882,0.6699352740522858,0.6483340128237645,0.6283134006363988,0.6099982709904741,0.5935059603671368,0.578945661916549,0.5664178163737859,0.556013540770567,0.5478140953002704,0.5418903886127905,0.5383025218634988,0.5370993720094435
3.5,1.0,0.9717585272262877,0.9432992216604583,0.9147708899755466,0.8863245540108786,0.8581126316215847,0.8302881048163534,0.8030036813845033,0.7764109560414106,0.7506595768395767,0.7258964222156885,0.7022647935900962,0.6799036279249816,0.6589467341038242,0.6395220564411533,0.621750968091442,0.6057475966216443,0.5916181835634993,0.579460479386497,0.5693631750437534,0.5614053710500116,0.5556560849578198,0.5521737981038447,0.5510060425964459
3.6,1.0,0.9726152248162957,0.9450190088657348,0.9173554336683226,0.8897707436570873,0.8624125615987467,0.8354290907724318,0.8089683095252197,0.7831771637072301,0.758200762282019,0.7341815811214322,0.711258679642336,0.6895669345422493,0.669236294459863,0.650391058943592,0.6331491846752557,0.6176216214845975,0.6039116803197437,0.5921144350226119,0.5823161595075217,0.5745938017631028,0.5690144959955117,0.5656351142044724,0.5645018585281751
3.7,1.0,0.973444951076666,0.9466846952078918,0.9198587796137854,0.8931088608391343,0.866577951718244,0.8404096547671466,0.814747387136581,0.7897336021872472,0.7655090126009596,0.7422118197265043,0.7199769535885765,0.6989353276752416,0.6792131122782916,0.6609310298065204,0.644203675139302,0.6291388637510259,0.6158370100289119,0.6043905379384478,0.5948833259708591,0.5873901881415013,0.5819763926997301,0.5786972201593419,0.5775975622605599
3.8000000000000003,1.0,0.9742487512259578,0.9482983689866894,0.9222840415728281,0.8963430123010425,0.8706138554859607,0.8452357386653407,0.8203476758045978,0.7960877761695307,0.772592493454924,0.749995879598779,0.7284288475061449,0.708018446663307,0.6888871553537584,0.6711521929038629,0.654924855100199,0.6403098756436726,0.6274048162478046,0.6162994877590617,0.607075404482574,0.5998052737419025,0.5945525225889918,0.5913708635099537,0.5903039009411422
3.9000000000000004,1.0,0.9750275923090551,0.949861963605655,0.9246341055594439,0.8994770103455135,0.8745249734813484,0.8499128828652408,0.8257754983979787,0.8022467265594131,0.7794588942471296,0.7575420260716027,0.7366231291477633,0.7168254892352123,0.6982679818672257,0.681064401881797,0.6653228145355267,0.651144931152376,0.6386255120422685,0.6278517992263806,0.6189029813322872,0.6118496928767665,0.6067535500390054,0.6036667249421154,0.6026315604042539
4.0,1.0,0.9757823749250147,0.951377280705264,0.9269116635910857,0.9025144159755087,0.8783157042732623,0.8544462830446009,0.8310367994523559,0.8082170921514296,0.786115488674521,0.764858105300589,0.7445681532788856,0.725365255137808,0.7073647746414571,0.6906771637750789,0.6754073299510785,0.6616540264371238,0.6495092688237009,0.6390577801758668,0.6303764673574915,0.6235339308790442,0.6185900105036285,0.6155953687505678,0.6145911143598223
4.1000000000000005,1.0,0.9765139427187419,0.9528460088896474,0.9291192410211833,0.9054585738529386,0.8819901857121191,0.8588408362316492,0.8361371942661489,0.8140051598690412,0.7925691841812813,0.7719515910329598,0.7522719039776257,0.7336461823706937,0.7161863699733493,0.6999996594178359,0.6851878757149038,0.6718468818251926,0.6600660091587094,0.6499275157148203,0.6415060744330164,0.6348682941946019,0.6300722757988246,0.62716720513393,0.6261929856730335
4.2,1.0,0.9772230900825226,0.9542697389255542,0.9312592187331379,0.9083126407047066,0.8855523285142015,0.8631011783238339,0.8410820089500688,0.8196169058388256,0.7988265625117277,0.7788296231180581,0.7597420296711607,0.7416763774674286,0.724741282085059,0.709040761243172,0.6946736346743881,0.681732945030045,0.6703054027011858,0.6604708573038086,0.6523017984466339,0.64586288827587,0.6412105281753062,0.6383924618917359,0.6374474172543774
4.3,1.0,0.9779105684236851,0.9556499761154758,0.9333338512177887,0.9110796084785588,0.8890058436689061,0.8672317147510046,0.8458763132223498,0.8250580291113847,0.804893913117933,0.7854990393819558,0.7669858723283463,0.7494636409769613,0.7330377240292314,0.7178090489492448,0.7038735081518571,0.6913213952967574,0.6802368645688868,0.6706974157050448,0.6627734074063271,0.6565276016579147,0.6520147413626589,0.6492811635831399,0.6483644505778132
4.4,1.0,0.9785770912830568,0.9569881504058046,0.9353452813510029,0.9137623232896056,0.8923542648924245,0.8712366456392433,0.8505249473824597,0.8303339794781112,0.8107772608260604,0.7919664021646191,0.7740104919449093,0.7570154890691969,0.7410836257179815,0.7263128234156585,0.7127961253970623,0.7006211482399788,0.6898695556244951,0.6806165569711252,0.6729304335979808,0.6668720949242205,0.6624946671334818,0.65984311659722,0.6589539102435047
4.5,1.0,0.9792233385317245,0.9582856246782854,0.9372955525241556,0.9163635009895339,0.895600967105961,0.8751199865596682,0.8550325446089677,0.8354499805428164,0.8164823888845415,0.7982380205586329,0.7808226872308575,0.7643391720047337,0.7488866496125194,0.734560119178721,0.721449852560958,0.7096408611891082,0.6992123842311644,0.6902374008149798,0.6827821689306957,0.6769057935302357,0.6726598262286002,0.6700878988970586,0.6692253933205223
4.6000000000000005,1.0,0.9798499598279838,0.959543701583144,0.939186618649358,0.9188857400237478,0.8987491817205616,0.8788855857293264,0.8594035494978819,0.8404110489753321,0.822014858292709,0.8043199691810217,0.7874290132283975,0.7714416900616061,0.7564542045040165,0.7425587157137001,0.72984280124379,0.7183889388941306,0.7082740091403875,0.6995688208356605,0.6923376627815173,0.6866378836612124,0.6825195027183325,0.6800248534494984,0.6791882624599926
4.7,1.0,0.9804575774799179,0.9607636292004509,0.9410203524567665,0.9213315321084228,0.9018020093540619,0.8825371383577534,0.8636422335744576,0.8452220106888689,0.8273800241290039,0.8102181041438153,0.7938357964436055,0.7783298073941278,0.7637934577312012,0.750316147723799,0.7379828366613079,0.7268735394764079,0.7170628432401456,0.7086194461814793,0.7016057217909019,0.6960773104675262,0.692082741061801,0.6896630845521302,0.6888516419731217
4.800000000000001,1.0,0.9810467888299097,0.9619466057589218,0.9427985524177495,0.9237032711530119,0.9047624304804983,0.8860781986940687,0.8677527083649963,0.849887514534748,0.832583049454406,0.815938076756355,0.800049147959083,0.785010064204707,0.7709113461120453,0.7578397145967684,0.7458775854654464,0.7351025805333048,0.7255870579472675,0.7173976643173695,0.7105949111717512,0.7052327781538681,0.7013583452757719,0.6990114564286751,0.6982244162315675
4.9,1.0,0.9816181682541457,0.9630937835955022,0.9445229485609556,0.9260032607686587,0.9076333144123564,0.8895121902186416,0.8717389364980359,0.8544120439897198,0.8376289172519901,0.8214853453862693,0.8060749749020584,0.7914887875341552,0.7778145858123993,0.7651364891589828,0.7535344432497838,0.743083745325116,0.7338545880726278,0.7259116246315587,0.7193135571839372,0.7141127515051402,0.7103548797439819,0.708078593591495,0.7073152298779529
5.0,1.0,0.9821722688515677,0.9642062725024618,0.9461952073949766,0.9282337206349772,0.9104174269360826,0.8928424143347545,0.8756047412107434,0.8587999272163891,0.842522440771825,0.8268651858212457,0.8119189905681881,0.7977721009157085,0.7845096813307855,0.7722133258319095,0.76096058176521,0.7508244889883563,0.7418731370234714,0.734169242671098,0.7277697504974149,0.7227254585169545,0.7190806712933904,0.7168728825719137,0.7161324894384515
